{
    "KPlugin": {
        "Description": "Quick document switching with Alt+Tab behavior",
        "Description[az]": "Alt+Tab ilə sənədləri sürətlə dəyişdirmək",
        "Description[ca@valencia]": "Canvia ràpidament de document amb el comportament d'Alt+Tab",
        "Description[ca]": "Canvia ràpidament de document amb el comportament d'Alt+Tab",
        "Description[cs]": "Rychlé přepínání dokumentů s chováním jako ALT+Tab",
        "Description[de]": "Schnellwechsler für Dokumente mit Alt+Tabulator",
        "Description[el]": "Γρήγορη εναλλαγή εγγράφων με συμπεριφορά Alt+Tab",
        "Description[en_GB]": "Quick document switching with Alt+Tab behaviour",
        "Description[es]": "Cambio rápido de documento al estilo de Alt+Tab",
        "Description[eu]": "Dokumentu artean azkar aldatzea Alt+Tab jokabidearekin",
        "Description[fi]": "Nopea tiedostonvaihto Alt+Sarkaimen tapaan",
        "Description[fr]": "Commutateur rapide de documents utilisant le comportement de la combinaison « ALT » + « TAB »",
        "Description[ia]": "Comportamento de Commutation rapide de documento con ALT+Tab",
        "Description[it]": "Cambio rapido dei documenti con Alt+Tab",
        "Description[ko]": "Alt+Tab과 비슷하게 작동하는 빠른 문서 전환기",
        "Description[nl]": "Snel van document wisselen met Alt+Tab",
        "Description[pl]": "Szybkie przełączanie dokumentów przy użyciu klawiszy Alt+Tab",
        "Description[pt]": "Selecção rápida de documentos com o comportamento do Alt+Tab",
        "Description[sl]": "Hitri preklop med dokumenti z obnašanjem Alt+Tab",
        "Description[sv]": "Snabbt dokumentbyte med Alt+Tabulator beteende",
        "Description[uk]": "Поведінка швидкого перемикача між документами за Alt+Tab",
        "Description[vi]": "Chuyển tài liệu nhanh với hành vi theo kiểu Alt+Tab",
        "Description[x-test]": "xxQuick document switching with Alt+Tab behaviorxx",
        "Description[zh_CN]": "使用 Alt+Tab 快速切换文档",
        "Name": "Document Switcher",
        "Name[az]": "Sənəd dəyişdricisi",
        "Name[ca@valencia]": "Commutador de documents",
        "Name[ca]": "Commutador de documents",
        "Name[cs]": "Přepínač dokumentů ",
        "Name[de]": "Dokumentumschalter",
        "Name[el]": "Εργαλείο εναλλαγής εγγράφων",
        "Name[en_GB]": "Document Switcher",
        "Name[es]": "Selector de documentos",
        "Name[eu]": "Dokumentu-aldatzailea",
        "Name[fi]": "Tiedostovaihto",
        "Name[fr]": "Commutateur de documents",
        "Name[ia]": "Commutator de documento",
        "Name[it]": "Selettore di documenti",
        "Name[ko]": "문서 전환기",
        "Name[my]": "မှတ်တမ်းပုံနှိပ်မူ ပြောင်းလဲကိရိယာ",
        "Name[nl]": "Documentenwisselaar",
        "Name[pl]": "Przełącznik dokumentów",
        "Name[pt]": "Selector de Documentos",
        "Name[pt_BR]": "Seletor de documentos",
        "Name[sk]": "Prepínač dokumentov",
        "Name[sl]": "Preklopnik dokumenta",
        "Name[sv]": "Dokumentbyte",
        "Name[uk]": "Перемикач між документами",
        "Name[vi]": "Trình chuyển tài liệu",
        "Name[x-test]": "xxDocument Switcherxx",
        "Name[zh_CN]": "文档切换器",
        "ServiceTypes": [
            "KTextEditor/Plugin"
        ]
    }
}
